DISTRICT	ZONE_NAME	REGION	Xc	Yc
Taplejung	Mechi	Eastern	87.8217	27.5822
Panchthar	Mechi	Eastern	87.7757	27.1151
Ilam	Mechi	Eastern	87.9014	26.8813
Mustang	Dhaulagiri	Western	83.8577	28.9814
Myagdi	Dhaulagiri	Western	83.4598	28.5533
Parbat	Dhaulagiri	Western	83.6788	28.2114
Baglung	Dhaulagiri	Western	83.2503	28.3476
Gulmi	Lumbini	Western	83.3069	28.094
Jhapa	Mechi	Eastern	87.9131	26.5847
Morang	Koshi	Eastern	87.4701	26.6176
Dolakha	Janakpur	Central	86.1985	27.7858
Sindhupalchok	Bagmati	Central	85.7394	27.9149
Kavrepalanchok	Bagmati	Central	85.6196	27.5362
Rautahat	Narayani	Central	85.3022	27.0019
Bara	Narayani	Central	85.0705	27.1081
Parsa	Narayani	Central	84.78	27.2398
Chitawan	Narayani	Central	84.4344	27.5851
Gorkha	Gandaki	Western	84.7905	28.3186
Achham	Seti	Far-Western	81.297	29.1127
Doti	Seti	Far-Western	80.8944	29.1697
Kailali	Seti	Far-Western	80.879	28.7418
Sunsari	Koshi	Eastern	87.1699	26.6507
Dhankuta	Koshi	Eastern	87.3308	26.9911
Terhathum	Koshi	Eastern	87.5488	27.1545
Sankhuwasabha	Koshi	Eastern	87.2781	27.5823
Siraha	Sagarmatha	Eastern	86.3423	26.7466
Dhanusa	Janakpur	Central	86.0337	26.8289
Mahottari	Janakpur	Central	85.8198	26.8793
Jumla	Karnali	Mid-Western	82.2171	29.2719
Kalikot	Karnali	Mid-Western	81.7507	29.1946
Mugu	Karnali	Mid-Western	82.3704	29.6181
Bhojpur	Koshi	Eastern	87.0678	27.1819
Solukhumbu	Sagarmatha	Eastern	86.7204	27.7106
Okhaldhunga	Sagarmatha	Eastern	86.4185	27.3296
Khotang	Sagarmatha	Eastern	86.7869	27.1682
Palpa	Lumbini	Western	83.6235	27.8175
Nawalparasi	Lumbini	Western	83.953	27.6339
Udayapur	Sagarmatha	Eastern	86.6812	26.9032
Saptari	Sagarmatha	Eastern	86.746	26.5982
Lalitpur	Bagmati	Central	85.3424	27.5386
Bhaktapur	Bagmati	Central	85.4405	27.6777
Kathmandu	Bagmati	Central	85.3473	27.7283
Nuwakot	Bagmati	Central	85.2353	27.9152
Rasuwa	Bagmati	Central	85.4122	28.1851
Kaski	Gandaki	Western	83.9972	28.3551
Manang	Gandaki	Western	84.2245	28.673
Banke	Bheri	Mid-Western	81.8222	28.0873
Bardiya	Bheri	Mid-Western	81.4014	28.3838
Surkhet	Bheri	Mid-Western	81.5863	28.6413
Sarlahi	Janakpur	Central	85.5651	26.9863
Sindhuli	Janakpur	Central	85.9441	27.2015
Ramechhap	Janakpur	Central	86.1772	27.5137
Dailekh	Bheri	Mid-Western	81.6796	28.8798
Jajarkot	Bheri	Mid-Western	82.1676	28.8655
Dolpa	Karnali	Mid-Western	83.0519	29.1708
Dhading	Bagmati	Central	84.9578	27.9507
Makwanpur	Narayani	Central	85.08	27.4698
Lamjung	Gandaki	Western	84.43	28.2893
Tanahu	Gandaki	Western	84.2511	27.9555
Syangja	Gandaki	Western	83.8031	28.0212
Salyan	Rapti	Mid-Western	82.1386	28.3966
Dang	Rapti	Mid-Western	82.4103	27.9643
Rupandehi	Lumbini	Western	83.3894	27.5768
Kapilbastu	Lumbini	Western	82.9814	27.6279
Arghakhanchi	Lumbini	Western	83.0792	27.9087
Pyuthan	Rapti	Mid-Western	82.8649	28.1156
Rolpa	Rapti	Mid-Western	82.6279	28.3443
Rukum	Rapti	Mid-Western	82.6637	28.7013
Humla	Karnali	Mid-Western	81.8798	30.0324
Bajura	Seti	Far-Western	81.5632	29.5614
Bajhang	Seti	Far-Western	81.1786	29.7083
Kanchanpur	Mahakali	Far-Western	80.3216	28.8619
Dadeldhura	Mahakali	Far-Western	80.4889	29.2232
Baitadi	Mahakali	Far-Western	80.5714	29.5077
Darchula	Mahakali	Far-Western	80.7918	29.8921
