Amar Shigh Mahila Samuha ,Kaski ,Sati Thapa ,061-527452 ,,,,
Baccha Ama Foundation ,Kathmandu ,Shobhakhar Kandel ,9841651756,,,,
Bahuayamik Shrinjansil Mahila Samaj ,Bhaktapur ,Sunita Busal ,01-6637688 ,,,,
Baladevi Thuladhunga Ama Samuha ,Kaski , , ,,,,
Barpak Nirman Mahila Samuha ,Gorkha ,Man Kumari Gurung ,9746038013,,,,
Bishwas Mahila Samuha  ,Sunsari  ,Ranjana Shrestha  ,025-531321,9842054671,,,
Chetanshil Mahila Samuha ,Bhaktapur ,Sharada Panta ,6632811,,,,
Devi Bikas Mahila Samuha ,Arghakhachi ,Mishra Acharya , ,,,,
Digo Shanti Ra Bikaska Lagi Nepal Mahila Abhiyan Kendra,Kathmandu ,Rekha Kumari Yadav ,4782247,,,,
Dwonda Pidit Tatha Yekal Mahila Bikas ,Kanchanpur ,Sita Bohara ,9848720381,,,,
Gatishil Mahila Sahuha ,Lalitpur ,Summaya Limbu ,9841752082,,,,
Jagaruk Mahila Samuha ,Kathmandu ,Rama Devi Khadka ,9841222491,,,,
Jagriti Mahlla Sashaktikaran Sanstha ,Mahottari ,Shreemati Ramasikil Devi, ,,,,
Jal Sahayog Mahila Samuha ,Lalitpur ,Laxmi Devi Maharjan ,9841974312,,,,
Jalpadevi Mahila Samaj ,Kathmandu ,Radika Vaniya ,9849272595,,,,
Janapriya Mahila Samuha ,Kathmandu ,Ganga Panta ,9851082068,,,,
Junkiri Mahila Samuha ,Banke ,Tika Thapa ,9748010468,,,,
Jyoti Shree Mahila Samuha ,Kathmandu ,Bisnu Kumari Bhusal ,4464761,9841242660,,,
Karnali Mahila Yekata Kendra ,Jumla ,Challi Kami ,9848302413,,,,
Kriyashil Hochapudka Mahila Sangh ,Kathmandu ,Sudari Mishra ,9841625968,,,,
Mahila  Adhikar Manch  ,Kathmandu  ,Ajita Sharma  ,9841237399,9857777035,,,
Mahila Beg Nepal ,Kathmandu ,Laxmi Shahi ,9841443153,,,,
Mahila Jagaran Bikas Kendra ,Jumla ,Saru Mahat ,9806304731, 087- 520269,,,
Mahila Jagriti Krishi Samuha  ,Sunsari  ,Sarita Meheta  ,025-560547  ,,,,
Mahila Naba Jagaran Sanstha ,Parsa ,Mini Singh Kohali ,9845099567,,,,
Mahila Samudayik Bikas Kendra ,Sarlahi ,Sukmari Devi ,9844046920,,,,
Mahila Swasthya Swoyam Sebika Samuha,Dang ,Shiwa Rana ,98478447,,,,
Mahila Swasthya Swoyam Sebika  ,Siraha  ,Shobha Kumari Yadav  ,9744005836,,,,
Mahila Swasthya Swoyam Sevak  ,Saptari  ,Devi Joshi  ,9842830517, 031-  550093,,,
Mahila Udhami Sangh ,Banke ,Sarswoti Sharma ,081-522229 ,,,,
Mahila Uththan Tatha Samrakshan  Manch Nepal,Saptari  ,Renu Shah  ,9842820327,031-  560144,,,
Mahila Utthan Kendra ,Jumla ,Shasiram Acharya ,9841901336,,,,
Mahilako Sathi Nepal ,Kathmandu ,Sarswoti Bhatta ,9851112248,4890677,,,
Nagangeni Shantitol Yekikrit Ama Samuha,Tanahu ,Kalpana Nepali ,9846242641,,,,
Nari Cetana Samuha  ,Jhapa  ,Pampha Viswokarma  ,9842699550,,,,
Nari Shakti Samuha ,Kathmandu ,Luna Shrestha ,4492097,4400400 9,803,49,486
Nari Utthan Samaj ,Parbat ,Kalpana Sharma Joshi ,9851000466,,,,
Nari Yekata Shakti Kendra ,Bardiya ,Menaka Ku. Pokharel ,9848031372,,,,
Nava Sangam Ama Samuha ,Kathmandu ,Sanu Shrestha ,9849067853,,,,
Nepal Cepang Mahila Sangh  ,Lalitpur  ,Savitra Cepang  ,9849286459,,,,
Nepal Mahila Samaj Sewa Samiti ,Bara ,Naima Khanum , ,,,,
Nepal Milijuli Mahila Samaj ,Kathmandu ,Kamala KC Dahal ,9851041542,,,,
Nepal Yekal Mahila Samaj ,Makwanpur ,Mamata Tamang ,9845301196,,,,
Pike Jharna Mahila Utthan Samuha  ,Solukhumbu  ,Krishna Kumari Karki  (Gita),  ,,,,
Pratibha Mahila Yekata Kendra ,Bhaktapur ,Jayanti Acharya (Poudel),16205572,,,,
Rastriya Muslim Mahila Bikas Samaj  ,Saptari  ,Irsarat Parij  ,9842829156,,,,
Sagarmatha Mahila Janakalyan Sanstha,Mahottari ,Vimala Poudel ,9807812519,9844034933,,,
Samata Mahila Bikas Manch ,Lalitpur ,Ganga Devi Mul ,9841701376,,,,
Samudayik Mahila Bikas Samuha ,Kaski ,Maya Capai ,9804184472,,,,
Sangharsa Mahila Samuha ,Dhading ,Devki Poudel ,9803866406,,,,
